[
  {
    "signature" : "art. 156 § 1 k.k.",
    "conclusions": [{"fact": "imprisoned_[12..120]_months"}],
    "premises": [{"fact": "heavy_damage_on_health"}, {"fact": "intentional"}]
  },
  {
    "signature" : "art. 156 § 2 k.k.",
    "conclusions": [{"fact": "imprisoned_[..36]_months"}],
    "premises": [{"fact": "heavy_damage_on_health"}, {"fact": "!intentional"}]
  },
  {
    "signature" : "art. 156 § 3 k.k.",
    "conclusions": [{"fact": "imprisoned_[24..144]_months"}],
    "premises": [{"fact": "heavy_damage_on_health"}, {"fact": "intentional"}, {"fact": "there_were_casualties"}]
  },
  {
    "signature" : "art. 157 § 1 k.k.",
    "conclusions": [{"fact": "imprisoned_[3..60]_months"}],
    "premises": [{"fact": "!heavy_damage_on_health"}, {"fact": "there_were_injuries"}, {"fact": "injured_more_than_7_days"}, {"fact": "intentional"}]
  },
  {
    "signature" : "art. 157 § 2 k.k.",
    "conclusions": [{"fact": "pay_fine_OR_limitation_of_freedom_OR_imprisoned_[..24]_months"}],
    "premises": [{"fact": "!heavy_damage_on_health"}, {"fact": "there_were_injuries"}, {"fact": "!injured_more_than_7_days"}, {"fact": "intentional"}]
  },
  {
    "signature" : "art. 157 § 3 k.k.",
    "conclusions": [{"fact": "pay_fine_OR_limitation_of_freedom_OR_imprisoned_[..12]_months"}],
    "premises": [{"fact": "!heavy_damage_on_health"}, {"fact": "there_were_injuries"}, {"fact": "!injured_more_than_7_days"}, {"fact": "!intentional"}]
  },
  {
    "signature" : "art. 157 § 3 k.k.",
    "conclusions": [{"fact": "pay_fine_OR_limitation_of_freedom_OR_imprisoned_[..12]_months"}],
    "premises": [{"fact": "!heavy_damage_on_health"}, {"fact": "there_were_injuries"}, {"fact": "injured_more_than_7_days"}, {"fact": "!intentional"}]
  },
  {
    "signature" : "art. 177 § 1 k.k.",
    "conclusions": [{"fact": "imprisoned_[..36]_months"}],
    "premises": [{"fact": "!you_take_special_care"}, {"fact": "!intentional"}, {"fact": "!heavy_damage_on_health"}, {"fact": "there_were_injuries"},
      {"fact": "injured_more_than_7_days"}, {"fact": "!there_were_casualties"}]
  },
  {
    "signature" : "art. 177 § 2 k.k.",
    "conclusions": [{"fact": "imprisoned_[6..96_months"}],
    "premises": [{"fact": "!you_take_special_care"}, {"fact": "!intentional"}, {"fact": "!heavy_damage_on_health"}, {"fact": "there_were_injuries"},
      {"fact": "injured_more_than_7_days"}, {"fact": "there_were_casualties"}]
  },
  {
    "signature" : "art. 177 § 2 k.k.",
    "conclusions": [{"fact": "imprisoned_[6..96_months"}],
    "premises": [{"fact": "!you_take_special_care"}, {"fact": "!intentional"}, {"fact": "there_were_injuries"}, {"fact": "injured_more_than_7_days"},
      {"fact": "heavy_damage_on_health"}]
  }
]